#num_mpi	msg_size	t_min[s]
7	0	7.53078e-05
7	32	2.81501e-05
7	256	4.65946e-05
7	1024	5.44112e-05
7	4096	8.54788e-05
7	16384	0.000154741
7	65536	0.00120807
7	262144	0.00254372
7	1048576	0.00723963
7	8388608	0.0485964
7	67108864	0.381977
7	536870912	3.03805
14	0	0.000121027
14	32	5.75421e-05
14	256	6.20091e-05
14	1024	0.000105395
14	4096	0.000136797
14	16384	0.000241707
14	65536	0.0020169
14	262144	0.00354953
14	1048576	0.00877287
14	8388608	0.0525659
14	67108864	0.402366
14	536870912	3.19694
28	0	0.000193449
28	32	0.000115474
28	256	0.000120674
28	1024	0.00020057
28	4096	0.000239436
28	16384	0.000403924
28	65536	0.000795773
28	262144	0.00569128
28	1048576	0.0111367
28	8388608	0.05653
28	67108864	0.413535
28	536870912	3.28989
56	0	0.000340212
56	32	0.000237042
56	256	0.000242996
56	1024	0.000279846
56	4096	0.000459245
56	16384	0.000605435
56	65536	0.00117498
56	262144	0.00912115
56	1048576	0.0156852
56	8388608	0.0625072
56	67108864	0.423435
56	536870912	3.32896
112	0	0.000622253
112	32	0.000535121
112	256	0.000517078
112	1024	0.000525457
112	4096	0.000884694
112	16384	0.00104461
112	65536	0.00181833
112	262144	0.00335234
112	1048576	0.0234948
112	8388608	0.071533
112	67108864	0.440079
112	536870912	3.38457
224	0	0.00132178
224	32	0.00114119
224	256	0.00113684
224	1024	0.008388
224	4096	0.00846197
224	16384	0.0019918
224	65536	0.0026477
224	262144	0.00482036
224	1048576	0.0366829
224	8388608	0.0887955
224	67108864	0.4768
224	536870912	3.40352
448	0	0.00275447
448	32	0.0221594
448	256	0.00904021
448	1024	0.00878013
448	4096	0.00815487
448	16384	0.0512381
448	65536	0.0833998
448	262144	0.0993266
448	1048576	0.0888602
448	8388608	0.226524
448	67108864	0.497878
448	536870912	3.41763
672	0	0.00415951
672	32	0.00376509
672	256	0.0104026
672	1024	0.0204266
672	4096	0.00957413
672	16384	0.0105069
672	65536	0.0143476
672	262144	0.00899347
672	1048576	0.027729
672	8388608	0.160661
672	67108864	0.56095
672	536870912	5.62346
