#x_coord	num_mpi	valid_samples	min	Q1	median	Q3	max (for quartile boxplot)	#unit: [median TEPS]
2	4	10	4016363635.01000023	4045244134.00500011	4069801478.57000017	4082185472.04250002	4109174933.78000021
4	8	10	7314313416.36999989	7345151636.32500076	7369272904.39999962	7391218585.59749985	7426055160.27999973
6	16	10	14718814640.20000076	14856180196.72500229	14889178303.89999962	14985500232.37500191	15080499615.50000000
8	32	10	26381907043.20000076	26738759041.22499847	26955912714.25000000	27014222517.02499771	27594252618.40000153
10	64	10	44491721258.30000305	45749030591.92500305	46494680629.30000305	46622712533.69999695	47613279037.90000153
12	128	10	76824290723.60000610	78993157759.82501221	81973683045.05000305	83075783091.02500916	85320968077.60000610
14	256	10	103160140558.00000000	109953731573.50000000	113043136740.00000000	117557802824.75000000	120398388736.00000000
16	512	10	83335687173.00000000	155160300946.00000000	164160918807.00000000	168135919153.75000000	179447227461.00000000
