#num_mpi	msg_size	t_min[usec]
7	1	1.47
7	2	1.58
7	4	1.42
7	8	1.77
7	16	1.58
7	32	1.7
7	64	1.77
7	128	2.66
7	256	3.06
7	512	3.42
7	1024	4.05
7	2048	5.67
7	4096	7.31
7	8192	10.41
7	16384	18.68
7	32768	89.27
7	65536	88.43
7	131072	103.22
7	262144	159.5
7	524288	248.55
7	1048576	487.76
7	2097152	966.74
7	4194304	1932.36
14	1	1.44
14	2	1.31
14	4	1.32
14	8	1.36
14	16	1.38
14	32	1.62
14	64	1.95
14	128	2.27
14	256	2.63
14	512	6.83
14	1024	7.67
14	2048	9.79
14	4096	11.55
14	8192	15.89
14	16384	13.73
14	32768	74.53
14	65536	78.48
14	131072	103.81
14	262144	166.28
14	524288	254.15
14	1048576	481.32
14	2097152	959.04
14	4194304	1917.33
28	1	0.82
28	2	0.82
28	4	0.84
28	8	0.95
28	16	0.9
28	32	1.01
28	64	1.98
28	128	2.06
28	256	2.56
28	512	3.59
28	1024	4.22
28	2048	6.35
28	4096	8.32
28	8192	12.73
28	16384	13.66
28	32768	72.5
28	65536	77.53
28	131072	104.16
28	262144	168.78
28	524288	252.92
28	1048576	481.66
28	2097152	979.07
28	4194304	1930.57
56	1	1.5
56	2	1.3
56	4	1.34
56	8	1.85
56	16	1.52
56	32	1.63
56	64	2.03
56	128	3.25
56	256	3.28
56	512	4.52
56	1024	4.63
56	2048	6.73
56	4096	8.45
56	8192	12.41
56	16384	19.37
56	32768	61.43
56	65536	73.16
56	131072	118.17
56	262144	171.88
56	524288	241.06
56	1048576	490.75
56	2097152	961.57
56	4194304	1923.41
112	1	1.59
112	2	1.36
112	4	1.56
112	8	3.02
112	16	1.44
112	32	1.63
112	64	2.12
112	128	3.12
112	256	3.88
112	512	5.86
112	1024	5.76
112	2048	8.46
112	4096	10.85
112	8192	13.74
112	16384	17.2
112	32768	60.16
112	65536	73.77
112	131072	70.39
112	262144	138.47
112	524288	225.21
112	1048576	483.36
112	2097152	1094.27
112	4194304	1969.46
224	1	1.8
224	2	1.3
224	4	1.5
224	8	1.83
224	16	2.64
224	32	3.21
224	64	2.15
224	128	3.58
224	256	4.99
224	512	9.73
224	1024	7.24
224	2048	10.41
224	4096	12.08
224	8192	16.59
224	16384	19.03
224	32768	64.84
224	65536	36.27
224	131072	75.58
224	262144	130.29
224	524288	223.98
224	1048576	445.15
224	2097152	1079.99
224	4194304	2056.18
448	1	2.33
448	2	1.41
448	4	1.83
448	8	1.8
448	16	1.66
448	32	2.07
448	64	3.36
448	128	4.76
448	256	4.51
448	512	11.69
448	1024	6.77
448	2048	11.16
448	4096	11.78
448	8192	16.44
448	16384	18.38
448	32768	34.35
448	65536	36.79
448	131072	77.49
448	262144	108.16
448	524288	472.44
448	1048576	428.3
448	2097152	1606.88
448	4194304	3305.3
672	1	3.56
672	2	1.57
672	4	2.76
672	8	2.05
672	16	1.85
672	32	2.84
672	64	2.58
672	128	3.74
672	256	9.06
672	512	8.11
672	1024	6.09
672	2048	12.12
672	4096	13.03
672	8192	18.93
672	16384	17.36
672	32768	38.57
672	65536	54.54
672	131072	62.42
672	262144	175.73
672	524288	303.99
672	1048576	462.03
672	2097152	1157.32
672	4194304	-1
