#num_mpi	msg_size	t_min[usec]
7	1	0.27
7	2	0.29
7	4	0.26
7	8	0.26
7	16	0.26
7	32	0.26
7	64	0.27
7	128	0.39
7	256	0.45
7	512	0.56
7	1024	0.66
7	2048	0.75
7	4096	0.99
7	8192	6.7
7	16384	20.98
7	32768	205.01
7	65536	131.32
7	131072	134.69
7	262144	193.69
7	524288	471.31
7	1048576	1332.25
7	2097152	3103.41
7	4194304	6618.61
14	1	0.27
14	2	0.26
14	4	0.25
14	8	0.27
14	16	0.27
14	32	0.27
14	64	0.27
14	128	0.4
14	256	0.46
14	512	0.57
14	1024	0.7
14	2048	0.65
14	4096	0.88
14	8192	2.93
14	16384	22.38
14	32768	223.45
14	65536	86.71
14	131072	134.07
14	262144	190.46
14	524288	476.83
14	1048576	1941.7
14	2097152	5763.05
14	4194304	13518.23
28	1	0.27
28	2	0.28
28	4	0.27
28	8	0.26
28	16	0.27
28	32	0.28
28	64	0.28
28	128	0.4
28	256	0.47
28	512	0.55
28	1024	0.6
28	2048	0.65
28	4096	0.89
28	8192	3.57
28	16384	20.89
28	32768	110.77
28	65536	52.19
28	131072	149.2
28	262144	199.03
28	524288	467.33
28	1048576	1941.93
28	2097152	6059.4
28	4194304	14320.37
56	1	0.29
56	2	0.28
56	4	0.28
56	8	0.28
56	16	0.27
56	32	0.28
56	64	0.29
56	128	0.41
56	256	0.48
56	512	0.55
56	1024	0.6
56	2048	0.68
56	4096	0.91
56	8192	6.0
56	16384	23.57
56	32768	29.01
56	65536	67.13
56	131072	150.53
56	262144	205.54
56	524288	458.15
56	1048576	1889.97
56	2097152	6034.82
56	4194304	14265.91
112	1	0.28
112	2	0.28
112	4	0.27
112	8	0.28
112	16	0.28
112	32	0.28
112	64	0.29
112	128	0.42
112	256	0.49
112	512	0.57
112	1024	0.64
112	2048	0.79
112	4096	1.14
112	8192	9.78
112	16384	29.12
112	32768	31.47
112	65536	54.77
112	131072	73.16
112	262144	178.98
112	524288	442.64
112	1048576	1864.92
112	2097152	5944.54
112	4194304	14027.7
224	1	0.3
224	2	0.29
224	4	0.28
224	8	0.29
224	16	0.29
224	32	0.29
224	64	0.3
224	128	0.43
224	256	0.49
224	512	0.57
224	1024	0.72
224	2048	0.86
224	4096	1.06
224	8192	13.65
224	16384	26.65
224	32768	34.84
224	65536	53.99
224	131072	146.81
224	262144	146.81
224	524288	444.02
224	1048576	1789.01
224	2097152	5880.95
224	4194304	14135.25
448	1	0.31
448	2	0.3
448	4	0.29
448	8	0.3
448	16	0.3
448	32	0.31
448	64	0.31
448	128	0.45
448	256	0.5
448	512	0.67
448	1024	0.75
448	2048	0.8
448	4096	1.0
448	8192	17.13
448	16384	27.76
448	32768	33.76
448	65536	54.16
448	131072	248.26
448	262144	149.52
448	524288	428.11
448	1048576	1695.12
448	2097152	5864.08
448	4194304	13922.68
672	1	0.33
672	2	0.36
672	4	0.31
672	8	0.32
672	16	0.32
672	32	0.33
672	64	0.33
672	128	0.45
672	256	0.54
672	512	0.65
672	1024	0.71
672	2048	0.88
672	4096	1.06
672	8192	22.58
672	16384	31.51
672	32768	35.37
672	65536	56.17
672	131072	131.93
672	262144	147.63
672	524288	433.62
672	1048576	1800.49
672	2097152	5782.2
672	4194304	-1
