#num_mpi	msg_size	t_min[usec]
7	1	4.32
7	2	4.4
7	4	4.14
7	8	4.18
7	16	4.23
7	32	4.28
7	64	4.62
7	128	6.91
7	256	7.57
7	512	8.18
7	1024	9.53
7	2048	36.13
7	4096	44.55
7	8192	63.94
7	16384	118.96
7	32768	637.29
7	65536	502.22
7	131072	412.95
7	262144	680.93
7	524288	1228.7
7	1048576	2321.03
7	2097152	4525.06
7	4194304	8916.98
14	1	12.32
14	2	12.6
14	4	12.94
14	8	13.22
14	16	14.57
14	32	18.53
14	64	21.72
14	128	21.87
14	256	26.18
14	512	31.77
14	1024	17.59
14	2048	80.52
14	4096	108.28
14	8192	156.93
14	16384	269.95
14	32768	1010.35
14	65536	788.52
14	131072	890.24
14	262144	1475.61
14	524288	2644.09
14	1048576	4995.46
14	2097152	9690.01
14	4194304	19077.05
28	1	19.29
28	2	18.83
28	4	18.97
28	8	21.57
28	16	26.19
28	32	27.0
28	64	30.35
28	128	35.4
28	256	46.76
28	512	59.5
28	1024	40.47
28	2048	205.55
28	4096	269.61
28	8192	394.12
28	16384	811.97
28	32768	1702.71
28	65536	1326.0
28	131072	2063.03
28	262144	60571.16
28	524288	10308.52
28	1048576	20988.93
28	2097152	32061.4
28	4194304	72400.32
56	1	26.87
56	2	27.24
56	4	29.94
56	8	34.02
56	16	38.62
56	32	40.38
56	64	48.13
56	128	55.61
56	256	71.87
56	512	151.49
56	1024	111.26
56	2048	504.96
56	4096	650.44
56	8192	911.83
56	16384	1591.35
56	32768	2241.93
56	65536	3678.93
56	131072	5561.32
56	262144	14634.95
56	524288	70678.0
56	1048576	42638.83
56	2097152	73052.87
56	4194304	319151.9
112	1	37.69
112	2	45.56
112	4	47.24
112	8	49.63
112	16	57.87
112	32	63.34
112	64	74.03
112	128	92.91
112	256	189.96
112	512	273.52
112	1024	269.99
112	2048	1554.07
112	4096	1828.37
112	8192	2278.3
112	16384	9841.38
112	32768	8782.5
112	65536	13418.35
112	131072	24240.96
112	262144	73566.31
112	524288	65274.29
112	1048576	166176.11
112	2097152	260050.76
112	4194304	3670540.64
224	1	69.42
224	2	72.85
224	4	74.17
224	8	79.26
224	16	90.52
224	32	105.55
224	64	119.45
224	128	240.94
224	256	345.67
224	512	560.94
224	1024	619.73
224	2048	64880.38
224	4096	3625.92
224	8192	6230.08
224	16384	25759.2
224	32768	25833.38
224	65536	144410407.65
224	131072	-1
224	262144	-1
224	524288	-1
224	1048576	-1
224	2097152	-1
224	4194304	-1
448	1	120.91
448	2	137.35
448	4	231.95
448	8	151.19
448	16	163.96
448	32	183.61
448	64	335.91
448	128	466.32
448	256	760.55
448	512	1351.49
448	1024	1373.56
448	2048	7357.86
448	4096	18069.87
448	8192	13836.5
448	16384	85468.69
448	32768	66809.0
448	65536	12824192.22
448	131072	-1
448	262144	-1
448	524288	-1
448	1048576	-1
448	2097152	-1
448	4194304	-1
672	1	399.97
672	2	192.6
672	4	213.55
672	8	242.34
672	16	230.94
672	32	305.64
672	64	519.16
672	128	677.4
672	256	1608.07
672	512	2322.12
672	1024	24217.59
672	2048	36762.91
672	4096	14218651.37
672	8192	347044.02
672	16384	172336.75
672	32768	18066710.45
672	65536	19484835.49
672	131072	-1
672	262144	-1
672	524288	-1
672	1048576	-1
672	2097152	-1
672	4194304	-1
