#num_mpi	msg_size	t_min[usec]
7	1	4.64
7	2	4.18
7	4	4.24
7	8	4.41
7	16	4.36
7	32	4.42
7	64	4.65
7	128	6.85
7	256	7.64
7	512	8.21
7	1024	9.64
7	2048	37.51
7	4096	45.9
7	8192	69.49
7	16384	115.89
7	32768	624.99
7	65536	485.71
7	131072	383.85
7	262144	654.55
7	524288	1198.34
7	1048576	2285.69
7	2097152	4466.36
7	4194304	8824.59
14	1	12.19
14	2	12.64
14	4	12.8
14	8	13.86
14	16	14.8
14	32	18.46
14	64	20.08
14	128	22.15
14	256	25.79
14	512	32.95
14	1024	17.88
14	2048	85.47
14	4096	111.63
14	8192	181.07
14	16384	321.92
14	32768	1110.63
14	65536	1082.65
14	131072	1718.54
14	262144	3347.23
14	524288	6643.45
14	1048576	13306.57
14	2097152	26472.48
14	4194304	52904.68
28	1	17.77
28	2	18.09
28	4	18.44
28	8	20.95
28	16	24.52
28	32	26.88
28	64	30.03
28	128	34.31
28	256	42.17
28	512	56.21
28	1024	47.11
28	2048	211.87
28	4096	286.01
28	8192	424.09
28	16384	739.58
28	32768	1891.04
28	65536	2202.76
28	131072	4163.75
28	262144	8205.73
28	524288	16234.02
28	1048576	32300.59
28	2097152	64612.34
28	4194304	129191.99
56	1	26.79
56	2	25.82
56	4	30.0
56	8	35.17
56	16	35.29
56	32	41.27
56	64	45.28
56	128	53.24
56	256	73.21
56	512	162.42
56	1024	111.76
56	2048	544.23
56	4096	672.13
56	8192	994.19
56	16384	1756.42
56	32768	2783.19
56	65536	4894.18
56	131072	9167.75
56	262144	18044.75
56	524288	35605.04
56	1048576	71107.75
56	2097152	142388.7
56	4194304	284466.15
112	1	36.6
112	2	43.9
112	4	45.05
112	8	57.6
112	16	52.22
112	32	63.27
112	64	72.62
112	128	95.09
112	256	213.47
112	512	315.71
112	1024	256.44
112	2048	1457.79
112	4096	1629.17
112	8192	2514.76
112	16384	4768.87
112	32768	8203.68
112	65536	15833.73
112	131072	31410.15
112	262144	62699.74
112	524288	125324.6
112	1048576	250428.8
112	2097152	500825.68
112	4194304	1004374.21
224	1	64.95
224	2	76.13
224	4	74.91
224	8	82.85
224	16	93.52
224	32	107.96
224	64	269.37
224	128	262.24
224	256	408.8
224	512	677.45
224	1024	785.02
224	2048	2992.05
224	4096	3887.46
224	8192	6081.42
224	16384	13992.62
224	32768	24448.25
224	65536	821322.12
224	131072	114774.2
224	262144	213899.27
224	524288	330283.5
224	1048576	640859.73
224	2097152	1264772.48
224	4194304	2361302.0
448	1	278.4
448	2	141.59
448	4	146.13
448	8	146.92
448	16	167.73
448	32	199.04
448	64	374.83
448	128	521.19
448	256	843.14
448	512	1611.65
448	1024	1408.25
448	2048	11914.58
448	4096	9273.7
448	8192	33259.97
448	16384	82117.59
448	32768	16540181.5
448	65536	35049656.63
448	131072	43454683.45
448	262144	60245834.44
448	524288	-1
448	1048576	-1
448	2097152	-1
448	4194304	-1
672	1	199.55
672	2	201.69
672	4	221.4
672	8	221.28
672	16	270.46
672	32	285.86
672	64	513.66
672	128	897.73
672	256	1625.48
672	512	2798.52
672	1024	1875.86
672	2048	22682.61
672	4096	41698.97
672	8192	48120.86
672	16384	5437556.46
672	32768	129663962.97
672	65536	-1
672	131072	-1
672	262144	-1
672	524288	-1
672	1048576	-1
672	2097152	-1
672	4194304	-1
