#x_coord	num_mpi	valid_samples	min	Q1	median	Q3	max (for quartile boxplot)	#unit: [s]
2	7	10	83.89299700	83.91093250	83.92914100	83.94433925	83.99601800
4	14	10	84.10891300	84.14170850	84.15679800	84.17424425	84.20183000
6	28	10	84.72113500	84.79944300	84.81447250	84.85798875	84.92672500
8	56	10	84.88859900	84.90788425	84.94024100	85.08832350	89.42785500
10	112	10	84.97286400	85.00457225	85.03124550	85.10945850	99.29625900
12	224	10	85.44759400	85.54651250	85.63067650	92.94468975	106.65323700
14	448	10	85.41407500	85.52668375	85.60552400	91.69686650	448.81875500
16	672	10	85.60358800	85.66442650	85.74495850	91.08433500	502.29426400
