#x_coord	num_mpi	valid_samples	min	Q1	median	Q3	max (for quartile boxplot)	#unit: [s]
2	7	10	110.63000000	110.65400000	110.71500000	110.84075000	110.85200000
4	14	10	130.98800000	131.15900000	131.20150000	131.40500000	138.74100000
6	28	10	124.87600000	134.94125000	138.18700000	143.48575000	151.20100000
8	56	10	121.16900000	123.96000000	128.84200000	140.06775000	158.45700000
10	112	10	250.72300000	296.64575000	315.28500000	339.08325000	368.88300000
12	224	7	612.01100000	661.81100000	737.52800000	739.99850000	797.07000000
14	448	10	350.18100000	395.81325000	435.08650000	481.73175000	542.10800000
16	672	10	134.23500000	213.95250000	320.28100000	402.92750000	497.52800000
