#x_coord	num_mpi	valid_samples	min	Q1	median	Q3	max (for quartile boxplot)	#unit: [s]
2	7	10	111.25100000	111.45700000	111.51500000	111.69500000	111.95500000
4	14	10	132.58300000	132.69550000	136.25300000	139.98800000	147.25700000
6	28	10	134.34000000	136.09525000	143.18150000	173.21050000	243.61600000
8	56	10	128.41400000	133.28625000	158.41350000	189.43625000	220.46000000
10	112	0	-1	-1	-1	-1	-1
12	224	10	288.22800000	303.94100000	430.16200000	552.85800000	608.56200000
14	448	10	355.28400000	439.02750000	459.25250000	504.51850000	546.64400000
16	672	8	498.01000000	557.14925000	603.99900000	671.31500000	695.33200000
