#x_coord	num_mpi	valid_samples	min	Q1	median	Q3	max (for quartile boxplot)	#unit: [s]
2	4	10	98.66446900	98.78728725	98.82177700	98.89925025	99.02090600
4	8	10	101.93524400	102.02081675	102.14558850	102.29779500	102.74792300
6	16	10	98.77862600	100.88811700	112.72356900	127.31927575	217.47872600
8	32	10	120.22645200	120.33709600	120.38703100	124.02775675	164.50417200
10	64	8	137.13662400	171.43487275	211.20610900	237.81606800	305.11391700
12	128	7	145.49262200	168.46021550	209.17697500	291.65785900	608.29073800
14	256	4	153.85326400	208.27096825	276.89425500	367.45982050	487.70436100
16	512	0	-1	-1	-1	-1	-1
